{
  "lists": [
    {
      "id": 1,
      "title": "To Do"
    },
    {
      "id": 2,
      "title": "In Progress"
    },
    {
      "id": 3,
      "title": "Done"
    }
  ],
  "tasks": [
    {
      "id": 1,
      "title": "Watching TV",
      "description": "Batman movie 2022",
      "listID": 1
    },
    {
      "id": 2,
      "title": "Watching TV",
      "description": "Spider-man movie 2022",
      "listID": 1
    }
  ],
  "labels": [
    {
      "id": 1,
      "name": "Done",
      "color": "light-green",
      "taskID": 1
    }
  ],
  "users": [
    {
      "id": 1,
      "username": "nhatduong",
      "pass": "123456789",
      "taskID": 1
    },
    {
      "id": 2,
      "username": "thongnguyen",
      "pass": "123456789",
      "taskID":2
    }
  ]
}
